Capstone Quiz I
…
In terms of price, which neighborhood has the highest standard deviation?

StoneBr

Timber

Veenker

NridgHt

Ans: StoneBr

ames_train %>% group_by(Neighborhood) %>% summarise(SD_price = sd(price)) %>% arrange(desc(SD_price))

## # A tibble: 27 x 2
##    Neighborhood  SD_price
##          <fctr>     <dbl>
##  1      StoneBr 123459.10
##  2      NridgHt 105088.90
##  3       Timber  84029.57
##  4      Veenker  72545.41
##  5      Crawfor  71267.56
##  6      GrnHill  70710.68
##  7      Somerst  65199.49
##  8      Edwards  54851.63
##  9      CollgCr  52786.08
## 10      SawyerW  48354.36
## # ... with 17 more rows
…
How many neighborhoods consist of only single-family homes? (e.g. Bldg.Type = 1Fam)

0

1

2

3

Ans: 3

ames_train %>% group_by(Neighborhood) %>% summarise(mean(Bldg.Type == "1Fam"))

## # A tibble: 27 x 2
##    Neighborhood `mean(Bldg.Type == "1Fam")`
##          <fctr>                       <dbl>
##  1      Blmngtn                   0.1818182
##  2      Blueste                   0.0000000
##  3       BrDale                   0.0000000
##  4      BrkSide                   0.9756098
##  5      ClearCr                   1.0000000
##  6      CollgCr                   0.9647059
##  7      Crawfor                   0.8620690
##  8      Edwards                   0.8000000
##  9      Gilbert                   0.9795918
## 10       Greens                   0.0000000
## # ... with 17 more rows
…
