Peer Assessment I
…
As evident from the graph, a high number of houses were built in the last decade.

A second peak is observere near the age of 60 years of age.

2 

The mantra in real estate is Location, Location, Location! Make a graphical display that relates a home price to its neighborhood in Ames, Iowa. Which summary statistics are most appropriate to use for determining the most expensive, least expensive, and most heterogeneous (having the most variation in housing price) neighborhoods? Report which neighborhoods these are based on the summary statistics of your choice. Report the value of your chosen summary statistics for these neighborhoods.

ames_train %>% 
        select(price, Neighborhood) %>%
        group_by(Neighborhood) %>%
                summarise(median = median(price), max = max(price), min = min(price), sd = sd(price)) %>% arrange(desc(median))

## # A tibble: 27 x 5
##    Neighborhood   median    max    min        sd
##          <fctr>    <dbl>  <dbl>  <dbl>     <dbl>
##  1      StoneBr 340691.5 591587 180000 123459.10
##  2      NridgHt 336860.0 615000 173000 105088.90
##  3      NoRidge 290000.0 405000 235000  35888.97
##  4      GrnHill 280000.0 330000 230000  70710.68
##  5       Timber 232500.0 425000 175000  84029.57
##  6      Somerst 221650.0 468000 139000  65199.49
##  7       Greens 212625.0 214000 155000  29063.42
##  8      Veenker 205750.0 385000 150000  72545.41
##  9      Crawfor 205000.0 392500  96500  71267.56
## 10      CollgCr 195800.0 475000 110000  52786.08
## # ... with 17 more rows
…
